Input file: /Users/terry/terry/maizegenetics3_test/dataFiles/ExpectedResults/GBS/Chr9_10-200000/bowtie2.1/Aligned_B73.sam
Output file: tempDir/GBS/Chr9_10-200000/SAMConverterPlugin/TOPM_from_SAM.topm
Total 106 tags
	97 were aligned to unique postions
	9 were aligned to multiple postions
	0 could not be aligned.

nPositions  nTags
1           97
99          9
