M0031:C05F2ACXX:5:250021001
M0345:C05F2ACXX:5:250021062
M0346:C05F2ACXX:5:250021074
M0077:C05F2ACXX:5:250021034
M0039:C05F2ACXX:5:250021003
M0031:C05F2ACXX:5:250021001
M0345:C05F2ACXX:5:250021062
M0075:C05F2ACXX:5:250021013
M0030:C05F2ACXX:5:250020992
M0344:C05F2ACXX:5:250021073
M0317:C05F2ACXX:5:250021045
M0058:C05F2ACXX:5:250021009
M0066:C05F2ACXX:5:250021021
M0040:C05F2ACXX:5:250021015
M0344:C05F2ACXX:5:250021073
M0346:C05F2ACXX:5:250021074
M0357:C05F2ACXX:5:250021076
M0040:C05F2ACXX:5:250021015
M0354:C05F2ACXX:5:250021075
M0345:C05F2ACXX:5:250021062
M0357:C05F2ACXX:5:250021076
M0074:C05F2ACXX:5:250021022
M0066:C05F2ACXX:5:250021021
M0276:C05F2ACXX:5:250021039
M0058:C05F2ACXX:5:250021009
M0272:C05F2ACXX:5:250021038
M0276:C05F2ACXX:5:250021039
M0346:C05F2ACXX:5:250021074
M0039:C05F2ACXX:5:250021003
M0344:C05F2ACXX:5:250021073
M0077:C05F2ACXX:5:250021034
M0357:C05F2ACXX:5:250021076
M0075:C05F2ACXX:5:250021013
M0346:C05F2ACXX:5:250021074
M0058:C05F2ACXX:5:250021009
M0040:C05F2ACXX:5:250021015
M0066:C05F2ACXX:5:250021021
M0317:C05F2ACXX:5:250021045
M0077:C05F2ACXX:5:250021034
CO106:C08L7ACXX:6:250047961
IDS28:C08L7ACXX:6:250048002
Ki11:C08L7ACXX:6:250047990
F7:C08L7ACXX:6:250048005
A239:C08L7ACXX:6:250047930
EP1:C08L7ACXX:6:250048006
Tzi25:C08L7ACXX:6:250047965
Ki11:C08L7ACXX:6:250047990
K55:C08L7ACXX:6:250047986
CML45:C08L7ACXX:6:250047951
W153R:C08L7ACXX:6:250048003
K55:C08L7ACXX:6:250047986
B76:C08L7ACXX:6:250047994
F7:C08L7ACXX:6:250048005
CH701-30:C08L7ACXX:6:250047933
F7:C08L7ACXX:6:250048005
CI.7:C08L7ACXX:6:250047981
IDS28:C08L7ACXX:6:250048002
W153R:C08L7ACXX:6:250048003
B76:C08L7ACXX:6:250047994
CO106:C08L7ACXX:6:250047961
B97:C08L7ACXX:6:250047970
CML45:C08L7ACXX:6:250047951
A659:C08L7ACXX:6:250048004
CO106:C08L7ACXX:6:250047961
CO106:C08L7ACXX:6:250047961
K55:C08L7ACXX:6:250047986
Oh603:C08L7ACXX:6:250047972
F7:C08L7ACXX:6:250048005
K55:C08L7ACXX:6:250047986
NC250:C08L7ACXX:6:250047923
IDS28:C08L7ACXX:6:250048002
Va22:C08L7ACXX:6:250048010
K55:C08L7ACXX:6:250047986
F7:C08L7ACXX:6:250048005
R168:C08L7ACXX:6:250047929
F7:C08L7ACXX:6:250048005
W153R:C08L7ACXX:6:250048003
IDS28:C08L7ACXX:6:250048002
CML45:C08L7ACXX:6:250047951
F7:C08L7ACXX:6:250048005
R168:C08L7ACXX:6:250047929
NC250:C08L7ACXX:6:250047923
CO106:C08L7ACXX:6:250047961
A619:C08L7ACXX:6:250047940
CO125:C08L7ACXX:6:250047975
IDS28:C08L7ACXX:6:250048002
A239:C08L7ACXX:6:250047930
NC250:C08L7ACXX:6:250047923
A239:C08L7ACXX:6:250047930
CML45:C08L7ACXX:6:250047951
CI.7:C08L7ACXX:6:250047981
CML277:C08L7ACXX:6:250047966
W153R:C08L7ACXX:6:250048003
CML45:C08L7ACXX:6:250047951
B97:C08L7ACXX:6:250047970
F7:C08L7ACXX:6:250048005
A619:C08L7ACXX:6:250047940
CI.7:C08L7ACXX:6:250047981
Va22:C08L7ACXX:6:250048010
R109B:C08L7ACXX:6:250047926
NC250:C08L7ACXX:6:250047923
CO125:C08L7ACXX:6:250047975
IDS28:C08L7ACXX:6:250048002
NC230:C08L7ACXX:6:250047946
A239:C08L7ACXX:6:250047930
Os420:C08L7ACXX:6:250047960
EP1:C08L7ACXX:6:250048006
W153R:C08L7ACXX:6:250048003
A682:C08L7ACXX:6:250047957
IDS28:C08L7ACXX:6:250048002
W153R:C08L7ACXX:6:250048003
K55:C08L7ACXX:6:250047986
NC230:C08L7ACXX:6:250047946
A682:C08L7ACXX:6:250047957
F7:C08L7ACXX:6:250048005
B76:C08L7ACXX:6:250047994
NC230:C08L7ACXX:6:250047946
CI.7:C08L7ACXX:6:250047981
A659:C08L7ACXX:6:250048004
A619:C08L7ACXX:6:250047940
CO106:C08L7ACXX:6:250047961
Ki11:C08L7ACXX:6:250047990
W153R:C08L7ACXX:6:250048003
K55:C08L7ACXX:6:250047986
EP1:C08L7ACXX:6:250048006
CO125:C08L7ACXX:6:250047975
