Trait	Marker	Chr	Position	marker_F	marker_p	marker_Rsq	add_F	add_p	dom_F	dom_p	marker_df	marker_MS	error_df	error_MS	model_df	model_MS
earht	PZA03062.7	9	3873116	2.21351	0.14884	0.07699	2.21351	0.14884	NaN	NaN	1	1828.62472	26	826.11952	28	837.39461
earht	PZA03062.15	9	3873152	0.00416	0.94902	1.5145E-4	0.00416	0.94902	NaN	NaN	1	3.60178	27	864.99836	29	809.6336
earht	PHM3925.79	9	3955377	1.67676	0.20593	0.0554	1.67676	0.20593	NaN	NaN	1	1335.70015	28	796.59646	30	793.00089
earht	PZD00036.2	9	6992336	0.00642	0.93685	2.7361E-4	0.00642	0.93685	NaN	NaN	1	5.75131	23	896.34553	25	829.11054
earht	PZA01799.1	9	9885916	0.67816	0.51741	0.05405	0.80133	0.37959	0.56937	0.45817	2	355.86858	23	524.75575	26	495.75832
earht	PZB00781.1	9	11101740	0.77359	0.38749	0.02937	0.77359	0.38749	NaN	NaN	1	630.74615	25	815.35427	27	785.28928
earht	sh1.4	9	11336778	0.45173	0.50702	0.01557	0.45173	0.50702	NaN	NaN	1	375.34427	28	830.89489	30	793.00089
earht	sh1.3	9	11337226	3.7336	0.06388	0.1191	3.7336	0.06388	NaN	NaN	1	2871.62453	27	769.13008	29	820.35079
earht	sh1.2	9	11339352	2.90028	0.09964	0.09202	2.90028	0.09964	NaN	NaN	1	2218.8693	28	765.05471	30	793.00089
earht	sh1.11	9	11339891	2.19449	0.14967	0.07126	2.19449	0.14967	NaN	NaN	1	1718.14552	28	782.9377	30	793.00089
earht	sh1.12	9	11340882	1.34319	0.25701	0.0482	1.34319	0.25701	NaN	NaN	1	1149.92514	26	856.11495	28	840.77785
earht	sh1.1	9	11341274	2.46565	0.1081	0.18022	3.30252	0.08223	1.54983	0.22626	2	1861.48199	22	754.96563	25	817.49514
earht	PHM1218.6	9	11342096	0.41325	0.52595	0.01537	0.41325	0.52595	NaN	NaN	1	362.69507	26	877.66684	28	831.29976
earht	PZA01195.3	9	11345280	0.00424	0.94855	1.4842E-4	0.00424	0.94855	NaN	NaN	1	3.57875	28	844.17223	30	793.00089
earht	PZA00466.1	9	11972467	2.86823	0.10144	0.0911	2.86823	0.10144	NaN	NaN	1	2196.63245	28	765.84888	30	793.00089
earht	PHM5181.10	9	15582065	2.67754	0.11338	0.08845	2.67754	0.11338	NaN	NaN	1	2132.65586	27	796.49929	29	820.35079
earht	PZA02916.5	9	15582100	5.44501	0.02873	0.18779	5.44501	0.02873	NaN	NaN	1	4339.92679	23	797.04699	25	912.47845
earht	PZA02916.4	9	15582109	4.93717	0.03597	0.16752	4.93717	0.03597	NaN	NaN	1	3753.61797	24	760.27705	26	852.36461
earht	PZA02702.1	9	16228586	3.8893	0.05855	0.11958	3.8893	0.05855	NaN	NaN	1	2883.24104	28	741.32714	30	793.00089
earht	PZA03431.1	9	16578365	2.00179	0.16814	0.06542	2.00179	0.16814	NaN	NaN	1	1577.344	28	787.96632	30	793.00089
earht	zmm3.1	9	16966211	NaN	NaN	0	NaN	NaN	NaN	NaN	0	NaN	27	857.34821	28	831.00327
earht	zmm3.2	9	16966263	NaN	NaN	0	NaN	NaN	NaN	NaN	0	NaN	27	857.34821	28	831.00327
earht	zmm3.4	9	16966348	NaN	NaN	0	NaN	NaN	NaN	NaN	0	NaN	28	834.23419	29	809.6336
earht	PZD00047.2	9	16966384	0.72615	0.40136	0.02478	0.72615	0.40136	NaN	NaN	1	597.58968	28	822.95755	30	793.00089
earht	PZD00047.1	9	16966493	0.34182	0.56346	0.01182	0.34182	0.56346	NaN	NaN	1	285.11849	28	834.11724	30	793.00089
earht	PZA03416.9	9	16979695	NaN	NaN	0	NaN	NaN	NaN	NaN	0	NaN	28	836.14662	29	811.83408
earht	PZA03416.7	9	16980092	13.22694	0.0012	0.33013	13.22694	0.0012	NaN	NaN	1	7594.83262	26	574.1944	28	810.97536
earht	PZA03416.8	9	16980100	NaN	NaN	0	NaN	NaN	NaN	NaN	0	NaN	28	836.14662	29	811.83408
earht	PZA03416.6	9	16980188	4.55154	0.04213	0.14012	4.55154	0.04213	NaN	NaN	1	1905.41091	27	418.63031	29	458.51753
earht	PZA02996.9	9	17214904	NaN	NaN	0	NaN	NaN	NaN	NaN	0	NaN	26	890.12307	27	861.2839
earht	PHM9374.5	9	17653676	3.39658	0.07634	0.10958	3.39658	0.07634	NaN	NaN	1	2641.65516	27	777.73881	29	820.1684
earht	PZA02844.1	9	17653885	NaN	NaN	0	NaN	NaN	NaN	NaN	0	NaN	28	834.23419	29	809.6336
earht	PZA00860.1	9	18684111	3.99901	0.05531	0.12253	3.99901	0.05531	NaN	NaN	1	2954.41218	28	738.78532	30	793.00089
earht	PZA03058.12	9	19292942	0.09375	0.76191	0.00353	0.09375	0.76191	NaN	NaN	1	83.16407	26	887.12452	28	831.00327
earht	PZA03058.16	9	19292964	0.47531	0.49717	0.01913	0.47531	0.49717	NaN	NaN	1	419.31348	24	882.19785	26	833.27988
earht	PZA03058.17	9	19292988	0.02451	0.87676	8.9077E-4	0.02451	0.87676	NaN	NaN	1	21.18461	27	864.34714	29	809.6336
earht	PZA03058.22	9	19293027	0.13728	0.87241	0.01111	0.28484	0.59826	0.0011	0.97381	2	122.80938	24	894.60448	27	808.47851
earht	PZA03058.21	9	19293212	0.03277	0.85765	0.00115	0.03277	0.85765	NaN	NaN	1	27.63666	28	843.31302	30	793.00089
earht	PZB00736.2	9	20516063	1.5774	0.21952	0.05229	1.5774	0.21952	NaN	NaN	1	1260.76916	28	799.27257	30	793.00089
earht	PZB00736.4	9	20516152	NaN	NaN	0	NaN	NaN	NaN	NaN	0	NaN	29	815.18624	30	793.00089
earht	PZA00583.4	9	20525979	0.74736	0.39553	0.02852	0.74736	0.39553	NaN	NaN	1	649.40876	25	868.9373	27	833.4582
earht	PZA00583.17	9	20526173	0.01544	0.90206	5.8299E-4	0.01544	0.90206	NaN	NaN	1	13.74095	26	889.79464	28	831.00327
earht	PZA00438.4	9	21519206	NaN	NaN	0	NaN	NaN	NaN	NaN	0	NaN	27	857.34821	28	831.00327
earht	PZB01042.7	9	22040626	4.75655	0.03775	0.14237	4.75655	0.03775	NaN	NaN	1	3432.80117	28	721.7	30	793.00089
earht	PZB01042.5	9	22040925	4.80911	0.0371	0.14811	4.80911	0.0371	NaN	NaN	1	3567.1143	27	741.74113	29	819.40239
earht	PZB01042.3	9	22040955	0.15958	0.69257	0.00556	0.15958	0.69257	NaN	NaN	1	133.97155	28	839.51534	30	793.00089
earht	PZB01042.2	9	22040988	0.53297	0.59291	0.03724	0.69823	0.41045	0.38309	0.54114	2	448.92794	27	842.31649	30	793.00089
earht	PZB01042.1	9	22041092	1.54333	0.22565	0.05704	1.54333	0.22565	NaN	NaN	1	1359.02179	25	880.57794	27	870.69246
earht	PZB01042.6	9	22041257	2.45308	0.12894	0.08165	2.45308	0.12894	NaN	NaN	1	1949.82939	27	794.85013	29	812.40306
earht	PZB01042.8	9	22041375	1.53111	0.22622	0.05083	1.53111	0.22622	NaN	NaN	1	1225.69351	28	800.52527	30	793.00089
earht	wx1.1	9	23215033	0.76816	0.38852	0.02703	0.76816	0.38852	NaN	NaN	1	576.56952	27	750.58388	29	724.46894
earht	PZB00547.3	9	23215090	0.50305	0.48403	0.0173	0.50305	0.48403	NaN	NaN	1	417.23298	28	829.39886	30	793.00089
earht	PZB00547.1	9	23215171	0.36171	0.55257	0.01296	0.36171	0.55257	NaN	NaN	1	309.48192	27	855.60374	29	812.40306
earht	PZB00544.1	9	23215722	2.1413	0.15493	0.07195	2.1413	0.15493	NaN	NaN	1	1670.42132	27	780.09723	29	790.29263
earht	PZB00544.2	9	23215793	0.93647	0.34178	0.03275	0.93647	0.34178	NaN	NaN	1	698.66564	27	746.0618	29	724.46894
earht	PZB00540.1	9	23217179	2.22575	0.14691	0.0722	2.22575	0.14691	NaN	NaN	1	1740.82248	28	782.12781	30	793.00089
earht	PZA01999.3	9	23217376	0.73664	0.39803	0.02513	0.73664	0.39803	NaN	NaN	1	605.99976	28	822.65719	30	793.00089
earht	PZB01110.6	9	24028336	5.6072E-4	0.98128	1.9634E-5	5.6072E-4	0.98128	NaN	NaN	1	0.4734	28	844.28313	30	793.00089
earht	PZB01110.1	9	24028795	5.6072E-4	0.98128	1.9634E-5	5.6072E-4	0.98128	NaN	NaN	1	0.4734	28	844.28313	30	793.00089
earht	PZB01963.2	9	24376691	0.11306	0.73929	0.00409	0.11306	0.73929	NaN	NaN	1	97.62753	27	863.49917	29	811.83408
earht	PZB01963.4	9	24376774	NaN	NaN	0	NaN	NaN	NaN	NaN	0	NaN	29	815.18624	30	793.00089
earht	PZB01963.6	9	24376844	0.12746	0.72433	0.00541	0.12746	0.72433	NaN	NaN	1	112.22834	23	880.49543	25	818.51363
earht	PZB01963.5	9	24376908	NaN	NaN	0	NaN	NaN	NaN	NaN	0	NaN	29	815.18624	30	793.00089
earht	PZB01963.3	9	24376967	0.14212	0.70913	0.00513	0.14212	0.70913	NaN	NaN	1	123.54072	27	869.28089	29	819.40239
earht	PZB01963.1	9	24377057	0.17921	0.67529	0.00624	0.17921	0.67529	NaN	NaN	1	150.34597	28	838.93054	30	793.00089
earht	PZA02648.2	9	25654718	0.83574	0.36842	0.02842	0.83574	0.36842	NaN	NaN	1	685.16769	28	819.82976	30	793.00089
earht	PZA03113.5	9	26513930	0.47678	0.496	0.01765	0.47678	0.496	NaN	NaN	1	421.5562	26	884.17454	28	841.39914
earht	PZA03113.3	9	26514219	0.47838	0.49529	0.01772	0.47838	0.49529	NaN	NaN	1	422.83567	26	883.89188	28	840.81171
earht	PZA03113.4	9	26514227	1.79751	0.19161	0.06344	1.79751	0.19161	NaN	NaN	1	1512.50849	26	841.44755	28	840.19611
earht	PZB00379.2	9	26661426	6.24351	0.01885	0.18412	6.24351	0.01885	NaN	NaN	1	4396.81332	27	704.2211	29	812.40306
earht	PZB00379.1	9	26661626	6.47856	0.01719	0.19591	6.47856	0.01719	NaN	NaN	1	4617.45591	26	712.72868	28	831.00327
earht	PZA00693.3	9	28318787	0.01876	0.8921	7.0821E-4	0.01876	0.8921	NaN	NaN	1	16.8299	26	896.94401	28	837.93054
earht	PZB00959.1	9	28529745	1.02594	0.31979	0.03465	1.02594	0.31979	NaN	NaN	1	835.58508	28	814.45771	30	793.00089
earht	PZB02423.1	9	28529871	1.28323	0.26691	0.04296	1.28323	0.26691	NaN	NaN	1	1035.95652	28	807.30159	30	793.00089
earht	PZB00235.2	9	34649110	1.10764	0.30159	0.03731	1.10764	0.30159	NaN	NaN	1	899.59305	28	812.17172	30	793.00089
earht	PZB00235.1	9	34649218	1.99841	0.16889	0.0676	1.99841	0.16889	NaN	NaN	1	1627.11957	27	814.20751	29	819.01116
earht	PZA02878.13	9	37421825	0.37217	0.54692	0.01333	0.37217	0.54692	NaN	NaN	1	321.40126	27	863.58279	29	820.35079
earht	PZA02861.13	9	42849025	0.29533	0.59184	0.01193	0.29533	0.59184	NaN	NaN	1	276.30816	24	935.59706	26	879.76966
earht	PZA02861.12	9	42849080	0.39818	0.67608	0.03288	0.04137	0.84053	0.75541	0.39375	2	386.82929	23	971.49411	26	893.49663
earht	PZA03469.1	9	42852770	0.06198	0.80535	0.00233	0.06198	0.80535	NaN	NaN	1	55.66975	26	898.19373	28	841.44353
earht	PZA03097.4	9	44359301	0.3306	0.57045	0.01283	0.3306	0.57045	NaN	NaN	1	304.81904	25	922.02848	27	869.02785
earht	PZA03097.7	9	44359430	4.55376	0.02059	0.26226	5.9707	0.02164	2.73776	0.1105	2	3118.20769	25	684.75463	28	838.48507
earht	PZB00014.1	9	46590628	0.24101	0.6276	0.009	0.24101	0.6276	NaN	NaN	1	216.6683	26	899.01257	28	848.66257
earht	PZA03085.30	9	51080355	4.64925	0.0192	0.26626	2.14916	0.15464	6.67984	0.01598	2	3137.82368	25	674.91017	28	831.00327
earht	PZB02422.1	9	59789379	0.00411	0.94938	1.6098E-4	0.00411	0.94938	NaN	NaN	1	3.58872	25	872.60387	27	815.37971
earht	PZA00588.1	9	59789907	0.15967	0.69272	0.00599	0.15967	0.69272	NaN	NaN	1	141.29142	26	884.88885	28	831.00327
earht	PZA00588.2	9	59789931	0.10385	0.74994	0.00407	0.10385	0.74994	NaN	NaN	1	95.58314	25	920.41829	27	859.71502
earht	PZB01114.6	9	60776013	0.72079	0.40308	0.02461	0.72079	0.40308	NaN	NaN	1	593.29178	28	823.11105	30	793.00089
earht	PZB01114.2	9	60776186	NaN	NaN	0	NaN	NaN	NaN	NaN	0	NaN	29	815.18624	30	793.00089
earht	PZB01114.1	9	60776323	0.72079	0.40308	0.02461	0.72079	0.40308	NaN	NaN	1	593.29178	28	823.11105	30	793.00089
earht	PZA00287.1	9	72258299	0.76239	0.39028	0.02697	0.76239	0.39028	NaN	NaN	1	641.45527	27	841.37415	29	809.6336
earht	PZA03057.3	9	73251868	0.06876	0.79514	0.00248	0.06876	0.79514	NaN	NaN	1	52.94195	27	769.97749	29	724.46894
earht	PZA00925.2	9	73487579	1.14453	0.33515	0.08515	0.31972	0.57682	1.9571	0.17462	2	909.45968	24	794.61545	27	782.29952
earht	PZA01791.2	9	77467426	0.19833	0.65949	0.0069	0.19833	0.65949	NaN	NaN	1	166.2754	28	838.36163	30	793.00089
earht	PZA03759.2	9	80446876	0.05729	0.81258	0.002	0.05729	0.81258	NaN	NaN	1	48.26707	28	842.57621	30	793.00089
earht	PZA03759.1	9	80446937	5.9128E-4	0.98077	2.0704E-5	5.9128E-4	0.98077	NaN	NaN	1	0.49921	28	844.28221	30	793.00089
earht	PZA03758.1	9	80499825	3.65354	0.06662	0.11695	3.65354	0.06662	NaN	NaN	1	2790.44604	27	763.76516	29	811.83408
earht	PZB00761.1	9	83959651	0.10201	0.75181	0.00356	0.10201	0.75181	NaN	NaN	1	85.81063	28	841.23537	30	793.00089
earht	PZB00761.2	9	83960023	0.00347	0.95345	1.2148E-4	0.00347	0.95345	NaN	NaN	1	2.92905	28	844.19543	30	793.00089
earht	PZA00070.5	9	85334547	0.00431	0.94815	1.6288E-4	0.00431	0.94815	NaN	NaN	1	3.87327	26	898.21743	28	838.48115
earht	PZA01861.1	9	85740054	0.01293	0.91027	4.5268E-4	0.01293	0.91027	NaN	NaN	1	10.91497	28	843.91022	30	793.00089
earht	PZA02545.1	9	88057165	0.49572	0.4872	0.01706	0.49572	0.4872	NaN	NaN	1	411.25214	28	829.61246	30	793.00089
earht	PZA00653.5	9	89363110	0.43768	0.5143	0.0169	0.43768	0.5143	NaN	NaN	1	397.50522	25	908.21134	27	860.44205
earht	PZA03595.2	9	90435061	2.16686	0.15258	0.07284	2.16686	0.15258	NaN	NaN	1	1687.18162	27	778.62932	29	788.05833
earht	PZA03595.1	9	90435214	0.16797	0.68515	0.00606	0.16797	0.68515	NaN	NaN	1	145.87594	27	868.45366	29	819.40239
earht	PZA03595.3	9	90435381	NaN	NaN	0	NaN	NaN	NaN	NaN	0	NaN	29	815.18624	30	793.00089
earht	PZA03596.2	9	90436004	0.14266	0.7085	0.00497	0.14266	0.7085	NaN	NaN	1	119.84013	28	840.02003	30	793.00089
earht	PZA03596.3	9	90436140	5.84259	0.02241	0.16927	5.84259	0.02241	NaN	NaN	1	4081.2804	28	698.54002	30	793.00089
earht	PZA03596.1	9	90436248	1.3216E-4	0.99091	4.6276E-6	1.3216E-4	0.99091	NaN	NaN	1	0.11158	28	844.29605	30	793.00089
earht	PZA02897.12	9	94285743	0.24006	0.62812	0.00866	0.24006	0.62812	NaN	NaN	1	205.85696	27	857.50742	29	809.6336
earht	PZA00947.1	9	96885738	0.04115	0.84072	0.00144	0.04115	0.84072	NaN	NaN	1	34.68811	28	843.06118	30	793.00089
earht	PZB01899.3	9	98502706	2.0718	0.16198	0.07218	2.0718	0.16198	NaN	NaN	1	1525.63414	26	736.38099	28	743.56773
earht	PZB01899.2	9	98503011	1.6629	0.20815	0.05683	1.6629	0.20815	NaN	NaN	1	1368.83416	27	823.15891	29	819.40239
earht	PZA03253.1	9	103719503	0.07179	0.79071	0.00251	0.07179	0.79071	NaN	NaN	1	60.45998	28	842.14075	30	793.00089
earht	PZA03253.2	9	103719660	0.8682	0.36003	0.03165	0.8682	0.36003	NaN	NaN	1	706.32636	26	813.55375	28	787.00432
earht	PZA00514.6	9	104237516	NaN	NaN	0	NaN	NaN	NaN	NaN	0	NaN	28	834.23419	29	809.6336
earht	PZA00514.1	9	104237592	NaN	NaN	0	NaN	NaN	NaN	NaN	0	NaN	27	863.2549	28	835.99995
earht	PZB00967.2	9	104333938	0.27722	0.60268	0.00961	0.27722	0.60268	NaN	NaN	1	231.76275	28	836.0228	30	793.00089
earht	PZB02480.2	9	104373145	0.28611	0.5971	0.01029	0.28611	0.5971	NaN	NaN	1	247.62803	27	865.50678	29	819.02751
earht	PZB02480.1	9	104373476	0.25381	0.61835	0.00881	0.25381	0.61835	NaN	NaN	1	212.36784	28	836.71547	30	793.00089
earht	PZA00225.7	9	104537824	0.21719	0.64522	0.00846	0.21719	0.64522	NaN	NaN	1	199.32887	25	917.75484	27	861.2839
earht	PZA00225.8	9	104537850	0.45083	0.50744	0.01554	0.45083	0.50744	NaN	NaN	1	374.6055	28	830.92127	30	793.00089
earht	PZB01358.1	9	106774837	0.06032	0.80778	0.00211	0.06032	0.80778	NaN	NaN	1	50.81823	28	842.4851	30	793.00089
earht	PZB01358.4	9	106774862	0.72615	0.40136	0.02478	0.72615	0.40136	NaN	NaN	1	597.58968	28	822.95755	30	793.00089
earht	PZB01358.3	9	106774925	1.92897	0.17582	0.06319	1.92897	0.17582	NaN	NaN	1	1523.65835	28	789.88367	30	793.00089
earht	PZB01358.2	9	106775093	0.11822	0.73363	0.00428	0.11822	0.73363	NaN	NaN	1	102.06619	27	863.33478	29	811.83408
earht	PZB01652.1	9	106850853	0.3029	0.58643	0.01049	0.3029	0.58643	NaN	NaN	1	253.00448	28	835.26416	30	793.00089
earht	PZA00015.5	9	109909820	0.20134	0.65709	0.007	0.20134	0.65709	NaN	NaN	1	168.7798	28	838.27219	30	793.00089
earht	PZA03470.1	9	110522534	1.17714	0.2879	0.0425	1.17714	0.2879	NaN	NaN	1	1013.92754	26	861.34563	28	840.77785
earht	PZB01913.2	9	110628874	0.27558	0.60375	0.00956	0.27558	0.60375	NaN	NaN	1	230.4045	28	836.07131	30	793.00089
earht	PZB01913.1	9	110629231	1.10254	0.30269	0.03714	1.10254	0.30269	NaN	NaN	1	895.61145	28	812.31392	30	793.00089
earht	PZB01869.2	9	111935442	2.1879E-4	0.98831	7.9511E-6	2.1879E-4	0.98831	NaN	NaN	1	0.18972	27	867.10798	29	811.83408
earht	PZB01869.4	9	111935545	3.82955	0.06077	0.12177	3.82955	0.06077	NaN	NaN	1	2933.09742	27	765.9109	29	819.55957
earht	PZB01869.1	9	111935626	2.58468	0.11912	0.08286	2.58468	0.11912	NaN	NaN	1	1997.82679	28	772.94908	30	793.00089
earht	PZB01867.5	9	111935765	0.09451	0.76088	0.00342	0.09451	0.76088	NaN	NaN	1	81.66199	27	864.09049	29	811.83408
earht	PZB01867.2	9	111935837	2.28526	0.14223	0.07657	2.28526	0.14223	NaN	NaN	1	1826.95036	27	799.45018	29	811.83408
earht	PZA03235.2	9	114897449	1.10332	0.30252	0.03717	1.10332	0.30252	NaN	NaN	1	896.21714	28	812.29228	30	793.00089
earht	PZA03235.3	9	114897648	NaN	NaN	0	NaN	NaN	NaN	NaN	0	NaN	28	836.14662	29	811.83408
earht	PZA03235.1	9	114897665	0.95567	0.33696	0.0334	0.95567	0.33696	NaN	NaN	1	712.50258	27	745.54932	29	724.46894
earht	PZA02613.1	9	116763482	NaN	NaN	0	NaN	NaN	NaN	NaN	0	NaN	29	815.18624	30	793.00089
earht	PZB01292.2	9	117894780	NaN	NaN	0	NaN	NaN	NaN	NaN	0	NaN	29	815.18624	30	793.00089
earht	PZB01292.1	9	117894891	6.67762	0.01549	0.19455	6.67762	0.01549	NaN	NaN	1	4642.16815	27	695.18286	29	811.83408
earht	PZB01292.3	9	117895037	0.74342	0.39616	0.02629	0.74342	0.39616	NaN	NaN	1	627.36013	27	843.87945	29	811.83408
earht	PZA01819.1	9	118511506	0.01478	0.90412	5.1715E-4	0.01478	0.90412	NaN	NaN	1	12.46937	28	843.8547	30	793.00089
earht	PZB01432.1	9	124067174	0.83479	0.36869	0.02838	0.83479	0.36869	NaN	NaN	1	684.40598	28	819.85697	30	793.00089
earht	PZB01432.3	9	124067329	0.32013	0.57604	0.01108	0.32013	0.57604	NaN	NaN	1	267.22725	28	834.75621	30	793.00089
earht	PZB01432.4	9	124067391	0.13229	0.71881	0.00461	0.13229	0.71881	NaN	NaN	1	111.16317	28	840.32993	30	793.00089
earht	PZB01432.2	9	124067508	0.44821	0.50867	0.01545	0.44821	0.50867	NaN	NaN	1	372.46451	28	830.99774	30	793.00089
earht	PZA00840.1	9	124112589	0.30528	0.58531	0.01138	0.30528	0.58531	NaN	NaN	1	263.4527	26	862.98034	28	815.47187
earht	PZA00060.2	9	124619424	0.68008	0.41653	0.02325	0.68008	0.41653	NaN	NaN	1	560.57846	28	824.27938	30	793.00089
earht	PZA00116.2	9	125052222	0.45849	0.50409	0.0164	0.45849	0.50409	NaN	NaN	1	390.02724	27	850.6863	29	809.6336
earht	PZA00116.3	9	125052246	0.47809	0.49542	0.01773	0.47809	0.49542	NaN	NaN	1	421.74334	26	882.14551	28	838.48115
earht	PZA00213.7	9	126584310	7.37794	0.01158	0.21709	7.37794	0.01158	NaN	NaN	1	5116.77729	26	693.52401	28	831.00327
earht	PZA00213.19	9	126584378	0.05226	0.82083	0.00183	0.05226	0.82083	NaN	NaN	1	44.04376	28	842.72705	30	793.00089
earht	PZB02504.1	9	128442190	4.50393	0.04433	0.15416	4.50393	0.04433	NaN	NaN	1	2993.41414	24	664.62221	26	736.13682
earht	PZB02504.3	9	128442195	2.49959	0.12552	0.08314	2.49959	0.12552	NaN	NaN	1	1983.78133	27	793.64163	29	811.83408
earht	PHM3330.25	9	128515170	0.84543	0.3663	0.0309	0.84543	0.3663	NaN	NaN	1	737.20876	26	871.98866	28	840.77785
earht	PZA00568.19	9	129048317	0.0017	0.9674	6.4374E-5	0.0017	0.9674	NaN	NaN	1	1.52636	26	896.39831	28	835.99995
earht	PZA02111.1	9	130251867	NaN	NaN	0	NaN	NaN	NaN	NaN	0	NaN	27	852.47358	28	827.73548
earht	PZB00080.2	9	130608245	NaN	NaN	0	NaN	NaN	NaN	NaN	0	NaN	26	728.64653	27	709.10807
earht	PZB00080.1	9	130608305	NaN	NaN	0	NaN	NaN	NaN	NaN	0	NaN	29	815.18624	30	793.00089
earht	PZB02099.2	9	130611573	NaN	NaN	0	NaN	NaN	NaN	NaN	0	NaN	29	815.18624	30	793.00089
earht	PZA03669.1	9	130876521	NaN	NaN	0	NaN	NaN	NaN	NaN	0	NaN	28	844.13648	29	818.98575
earht	PZA03670.1	9	130886940	0.46919	0.49899	0.01616	0.46919	0.49899	NaN	NaN	1	389.6121	28	830.38532	30	793.00089
earht	PZA03671.1	9	130889568	1.3513	0.25486	0.04514	1.3513	0.25486	NaN	NaN	1	1088.37386	28	805.42954	30	793.00089
earht	PZA02235.14	9	132119630	1.04368	0.31603	0.03649	1.04368	0.31603	NaN	NaN	1	879.71924	27	842.90435	29	820.35079
earht	PZB00126.1	9	133389152	0.31714	0.57782	0.01098	0.31714	0.57782	NaN	NaN	1	264.75982	28	834.84433	30	793.00089
earht	PZB00643.1	9	133448740	0.8351	0.36889	0.02941	0.8351	0.36889	NaN	NaN	1	702.36291	27	841.0526	29	812.40306
earht	PZB00750.3	9	133448843	0.02135	0.97889	0.00174	0.0301	0.86366	0.0138	0.90747	2	20.51947	24	960.9072	27	860.74313
earht	PZB00750.2	9	133449028	0.38955	0.53777	0.01396	0.38955	0.53777	NaN	NaN	1	335.44423	27	861.09826	29	817.61522
earht	PZA01096.1	9	133450713	0.38435	0.54048	0.01376	0.38435	0.54048	NaN	NaN	1	331.76995	27	863.19877	29	820.35079
earht	PZB01436.2	9	135383612	NaN	NaN	0	NaN	NaN	NaN	NaN	0	NaN	29	815.18624	30	793.00089
earht	PZB01436.3	9	135383693	5.6457E-5	0.99406	1.9769E-6	5.6457E-5	0.99406	NaN	NaN	1	0.04767	28	844.29834	30	793.00089
earht	PZB01436.1	9	135383906	0.44877	0.50931	0.0179	0.44877	0.50931	NaN	NaN	1	199.35633	24	444.22602	26	419.01263
earht	PZB00118.2	9	135842386	0.65004	0.42714	0.02303	0.65004	0.42714	NaN	NaN	1	554.68539	27	853.31257	29	819.40239
earht	PZA02252.2	9	136597740	0.30305	0.5865	0.01088	0.30305	0.5865	NaN	NaN	1	262.36874	27	865.76918	29	820.35079
earht	PZA00502.5	9	139381999	NaN	NaN	0	NaN	NaN	NaN	NaN	0	NaN	26	828.9187	27	804.36638
earht	PZA00502.1	9	139382140	0.05383	0.81834	0.00203	0.05383	0.81834	NaN	NaN	1	47.83076	26	888.4835	28	831.00327
earht	PZA01369.1	9	140926271	2.67575	0.11394	0.09151	2.67575	0.11394	NaN	NaN	1	2202.81915	26	823.25293	28	848.29983
earht	PHM816.29	9	142043997	0.15356	0.69812	0.00535	0.15356	0.69812	NaN	NaN	1	128.9452	28	839.69485	30	793.00089
earht	PZB00221.3	9	142271047	0.51608	0.47847	0.01774	0.51608	0.47847	NaN	NaN	1	427.84289	28	829.01994	30	793.00089
earht	PZB00221.6	9	142271097	NaN	NaN	0	NaN	NaN	NaN	NaN	0	NaN	29	815.18624	30	793.00089
earht	PZD00055.1	9	142271281	0.10492	0.74841	0.00366	0.10492	0.74841	NaN	NaN	1	88.25535	28	841.14806	30	793.00089
earht	PZD00055.2	9	142271439	0.0264	0.8721	9.2341E-4	0.0264	0.8721	NaN	NaN	1	22.26509	28	843.50486	30	793.00089
earht	PZB00221.2	9	142271476	0.55115	0.46426	0.01961	0.55115	0.46426	NaN	NaN	1	468.32044	27	849.72084	29	812.40306
earht	PZB00221.5	9	142271582	0.22132	0.64168	0.00769	0.22132	0.64168	NaN	NaN	1	185.39311	28	837.67886	30	793.00089
earht	PZB00221.7	9	142271657	2.16627	0.15263	0.07269	2.16627	0.15263	NaN	NaN	1	1637.19219	27	755.76394	29	766.91302
earht	PZA00323.3	9	142499873	0.01382	0.90745	5.8906E-4	0.01382	0.90745	NaN	NaN	1	12.88355	23	932.38955	25	864.69434
earht	PZA00323.4	9	142500070	0.35188	0.70679	0.02689	0.72475	0.40236	0.00669	0.93545	2	316.8958	25	900.5844	28	831.00327
earht	PZA01715.2	9	142948449	0.1357	0.71547	0.0049	0.1357	0.71547	NaN	NaN	1	118.20704	27	871.1085	29	820.35079
earht	PZA01715.1	9	142948545	1.6453	0.21136	0.06064	1.6453	0.21136	NaN	NaN	1	1321.54053	25	803.21947	27	797.54322
earht	PZA02381.1	9	144723067	1.31354	0.26305	0.05076	1.31354	0.26305	NaN	NaN	1	1116.4126	24	849.92676	26	836.42638
earht	PZA00912.2	9	145148200	0.57696	0.45409	0.02053	0.57696	0.45409	NaN	NaN	1	493.44035	27	855.24655	29	817.61522
earht	PZA02997.16	9	146470580	1.25756	0.27199	0.04371	1.25756	0.27199	NaN	NaN	1	1039.53505	27	826.63046	29	809.6336
earht	PZA02997.19	9	146470644	NaN	NaN	0	NaN	NaN	NaN	NaN	0	NaN	27	857.34821	28	831.00327
earht	PZA00832.1	9	147131097	7.15488	0.01254	0.20555	7.15488	0.01254	NaN	NaN	1	4904.44895	27	685.46875	29	811.83408
earht	PZA00579.2	9	147384886	1.74886	0.1973	0.13473	2.69203	0.11446	0.82606	0.37326	2	1541.83633	22	881.62173	25	903.88624
earht	PZA00579.6	9	147384958	NaN	NaN	0	NaN	NaN	NaN	NaN	0	NaN	24	510.23884	25	493.375
earht	PZA03156.3	9	147821234	6.0655E-4	0.98053	2.2023E-5	6.0655E-4	0.98053	NaN	NaN	1	0.52591	27	867.04656	29	812.40306
earht	PZA02847.21	9	147826958	0.19574	0.82358	0.01644	0.21521	0.64689	0.18359	0.67229	2	193.29095	23	987.48495	26	893.07108
earht	PZA00428.2	9	148430337	0.3246	0.72594	0.02587	0.2206	0.64265	0.43359	0.5165	2	296.87802	24	914.60396	27	838.97379
earht	PHM13681.12	9	148713045	2.52992	0.12293	0.08125	2.52992	0.12293	NaN	NaN	1	1959.00976	28	774.3354	30	793.00089
earht	PZA03405.1	9	148715252	NaN	NaN	0	NaN	NaN	NaN	NaN	0	NaN	29	815.18624	30	793.00089
earht	PZA00123.1	9	149398788	0.03652	0.84993	0.00138	0.03652	0.84993	NaN	NaN	1	31.54278	26	863.76341	28	808.67859
earht	PZD00050.3	9	149507714	2.66841	0.11397	0.08819	2.66841	0.11397	NaN	NaN	1	2042.5808	27	765.46639	29	788.05833
earht	PZD00050.2	9	149507835	NaN	NaN	0	NaN	NaN	NaN	NaN	0	NaN	24	893.34626	25	863.08321
earht	PZA03573.2	9	150137968	3.44241	0.0741	0.10734	3.44241	0.0741	NaN	NaN	1	2588.22265	28	751.86352	30	793.00089
earht	PZA03573.3	9	150138109	1.94961	0.17444	0.06865	1.94961	0.17444	NaN	NaN	1	1648.34263	26	845.4709	28	847.7669
earht	PZA03573.1	9	150138200	0.78959	0.38179	0.02689	0.78959	0.38179	NaN	NaN	1	648.37068	28	821.14394	30	793.00089
earht	PZA03573.4	9	150138319	NaN	NaN	0	NaN	NaN	NaN	NaN	0	NaN	29	815.18624	30	793.00089
earht	PZA03572.2	9	150138962	2.60796	0.11754	0.08354	2.60796	0.11754	NaN	NaN	1	2014.28837	28	772.36117	30	793.00089
earht	PZA00184.4	9	151289826	0.02451	0.87676	8.9077E-4	0.02451	0.87676	NaN	NaN	1	21.18461	27	864.34714	29	809.6336
earht	PZA00184.1	9	151289948	2.66087	0.11446	0.08811	2.66087	0.11446	NaN	NaN	1	2095.49344	27	787.52089	29	809.6336
earht	PZA03332.1	10	838970	0.00692	0.9343	2.4222E-4	0.00692	0.9343	NaN	NaN	1	5.84045	28	844.09145	30	793.00089
earht	PZA02554.1	10	1939921	0.49863	0.48615	0.01778	0.49863	0.48615	NaN	NaN	1	428.62981	27	859.61137	29	820.35079
earht	PZA02221.20	10	1948030	0.68116	0.41642	0.02412	0.68116	0.41642	NaN	NaN	1	581.66812	27	853.94328	29	820.35079
earht	PZA03216.2	10	2118915	0.6817	0.51491	0.05088	0.39148	0.53698	0.97234	0.33354	2	605.36565	25	888.01801	28	840.17629
earht	PZA01313.2	10	3598262	3.37016	0.07742	0.10879	3.37016	0.07742	NaN	NaN	1	2623.1105	27	778.3343	29	820.35079
earht	PZA02095.10	10	5119007	0.00418	0.94895	1.5165E-4	0.00418	0.94895	NaN	NaN	1	3.65628	27	875.35113	29	820.35079
earht	PZA03078.29	10	6121273	0.00218	0.96312	8.2329E-5	0.00218	0.96312	NaN	NaN	1	1.95709	26	898.07905	28	838.16304
earht	PZA03078.33	10	6121326	0.00416	0.94902	1.5145E-4	0.00416	0.94902	NaN	NaN	1	3.60178	27	864.99836	29	809.6336
earht	PHM2828.83	10	6121374	0.00701	0.9339	2.5444E-4	0.00701	0.9339	NaN	NaN	1	6.13473	27	875.25933	29	820.35079
earht	PHM3765.7	10	7904882	1.61146	0.2189	0.10814	3.04376	0.09242	0.26231	0.61286	2	1252.31973	26	777.13592	29	788.05833
earht	PZA03563.1	10	8398476	0.16501	0.68804	0.00636	0.16501	0.68804	NaN	NaN	1	76.05559	25	460.91499	27	433.50255
earht	PZA03563.2	10	8398599	NaN	NaN	0	NaN	NaN	NaN	NaN	0	NaN	29	815.18624	30	793.00089
earht	PZA03571.2	10	8398973	0.08187	0.77714	0.0032	0.08187	0.77714	NaN	NaN	1	70.40037	25	859.92388	27	804.78839
earht	PZA01883.2	10	8950935	0.01681	0.98334	0.00122	0.02609	0.87283	0.00846	0.9274	2	14.70352	27	874.48126	30	793.00089
earht	PZB01301.7	10	9748233	2.00247	0.16807	0.06544	2.00247	0.16807	NaN	NaN	1	1577.84209	28	787.94854	30	793.00089
earht	PZB01301.6	10	9748367	0.01312	0.90962	4.5929E-4	0.01312	0.90962	NaN	NaN	1	11.07434	28	843.90453	30	793.00089
earht	PZB01301.5	10	9748559	5.81925	0.02265	0.16871	5.81925	0.02265	NaN	NaN	1	4067.78294	28	699.02208	30	793.00089
earht	PZA00257.11	10	10432605	0.40436	0.5304	0.01504	0.40436	0.5304	NaN	NaN	1	344.0653	26	850.88213	28	806.50035
earht	PZA00257.22	10	10432680	0.18574	0.66991	0.00671	0.18574	0.66991	NaN	NaN	1	159.58857	27	859.22107	29	809.6336
earht	PZA00463.3	10	13546326	2.10567	0.14132	0.13229	0.06962	0.79382	4.13392	0.05197	2	1594.89507	27	757.43003	30	793.00089
earht	PZA02961.1	10	16264730	0.14166	0.70969	0.00532	0.14166	0.70969	NaN	NaN	1	124.34103	26	877.75866	28	824.19665
earht	PZA02961.6	10	16264897	1.28519	0.26728	0.04626	1.28519	0.26728	NaN	NaN	1	1090.33986	26	848.38699	28	831.00327
earht	PZA00656.4	10	17645859	NaN	NaN	0	NaN	NaN	NaN	NaN	0	NaN	28	834.23419	29	809.6336
earht	PZA00656.14	10	17645881	NaN	NaN	0	NaN	NaN	NaN	NaN	0	NaN	26	873.77353	27	843.89663
earht	PHM3922.32	10	17722937	5.14008	0.01315	0.2778	7.76062	0.00965	2.18028	0.1518	2	3348.98868	26	651.54459	29	820.35079
earht	PZA00079.1	10	18903460	0.02195	0.9783	0.00159	0.03916	0.84456	0.00613	0.93816	2	19.18923	27	874.14899	30	793.00089
earht	PZA00310.5	10	20451157	0.48479	0.49244	0.01782	0.48479	0.49244	NaN	NaN	1	233.85653	26	482.38857	28	458.57525
earht	PZA02853.10	10	25965887	0.06692	0.79791	0.00253	0.06692	0.79791	NaN	NaN	1	55.8652	26	834.80782	28	779.92486
earht	PZA02853.7	10	25965933	0.02086	0.88622	7.5838E-4	0.02086	0.88622	NaN	NaN	1	18.03618	27	864.46375	29	809.6336
earht	PZA00552.3	10	26982134	0.51723	0.47844	0.01916	0.51723	0.47844	NaN	NaN	1	451.52039	26	872.95697	28	831.00327
earht	PZA00552.4	10	26982383	0.04038	0.84236	0.00158	0.04038	0.84236	NaN	NaN	1	36.62812	25	906.99182	27	846.02297
earht	PZA03262.2	10	28596609	0.04773	0.82871	0.00173	0.04773	0.82871	NaN	NaN	1	41.31025	27	865.53603	29	812.40306
earht	PZA03262.1	10	28596640	0.14805	0.70353	0.00555	0.14805	0.70353	NaN	NaN	1	132.51424	26	895.05809	28	840.81171
earht	PZA03137.3	10	28596680	0.00425	0.94851	1.6058E-4	0.00425	0.94851	NaN	NaN	1	3.78488	26	890.17757	28	831.00327
earht	PZD00032.2	10	30830302	3.5285E-4	0.98516	1.3838E-5	3.5285E-4	0.98516	NaN	NaN	1	0.32696	25	926.62185	27	863.57251
earht	PZD00032.1	10	30830484	4.95857	0.0352	0.16143	4.95857	0.0352	NaN	NaN	1	3135.6355	25	632.36697	27	709.10807
earht	PZD00032.4	10	30830707	NaN	NaN	0	NaN	NaN	NaN	NaN	0	NaN	28	836.14662	29	811.83408
earht	PZD00032.5	10	30830820	NaN	NaN	0	NaN	NaN	NaN	NaN	0	NaN	28	836.14662	29	811.83408
earht	PZD00032.3	10	30830960	NaN	NaN	0	NaN	NaN	NaN	NaN	0	NaN	29	815.18624	30	793.00089
earht	PZD00033.2	10	30832690	8.2868	0.00757	0.22391	8.2868	0.00757	NaN	NaN	1	5398.7497	28	651.48755	30	793.00089
earht	PZA02945.10	10	33619582	2.60487	0.11861	0.08944	2.60487	0.11861	NaN	NaN	1	2107.98452	26	809.24681	28	831.00327
earht	PZA02945.37	10	33619945	0.88195	0.35702	0.03485	0.88195	0.35702	NaN	NaN	1	780.76917	24	885.27427	26	850.93275
earht	PZB01178.1	10	42369806	3.40887	0.07544	0.10641	3.40887	0.07544	NaN	NaN	1	2565.7418	28	752.6664	30	793.00089
earht	PZB00849.1	10	43580032	1.3733	0.25112	0.04584	1.3733	0.25112	NaN	NaN	1	1105.26473	28	804.8263	30	793.00089
earht	PZB00849.2	10	43580042	4.98341	0.03377	0.14813	4.98341	0.03377	NaN	NaN	1	3571.78965	28	716.73612	30	793.00089
earht	PZA01597.1	10	61603191	0.29429	0.59194	0.01058	0.29429	0.59194	NaN	NaN	1	252.42842	27	857.76581	29	811.83408
earht	PZA00562.4	10	61763079	0.47557	0.49654	0.01764	0.47557	0.49654	NaN	NaN	1	419.20346	26	881.4681	28	837.93054
earht	PZA00562.3	10	61763171	0.41264	0.66651	0.03265	0.69401	0.41269	0.15473	0.69753	2	384.69866	24	932.29406	27	861.48478
earht	PZA00409.17	10	62062819	0.34945	0.55973	0.01352	0.34945	0.55973	NaN	NaN	1	315.96104	25	904.17943	27	855.10805
earht	PZA00409.15	10	62062890	0.25221	0.61992	0.00984	0.25221	0.61992	NaN	NaN	1	215.68574	25	855.16831	27	802.59003
earht	PZA00409.3	10	62062924	0.02208	0.88306	8.6772E-4	0.02208	0.88306	NaN	NaN	1	18.85384	25	853.74833	27	794.93238
earht	PZA00174.1	10	66408538	4.60377	0.04105	0.14308	4.60377	0.04105	NaN	NaN	1	3402.67415	27	739.10679	29	809.6336
earht	PZA00174.2	10	66408674	4.4091	0.0456	0.14239	4.4091	0.0456	NaN	NaN	1	3383.74769	26	767.44717	28	837.93054
earht	PZA00665.6	10	68803444	0.03755	0.84779	0.00136	0.03755	0.84779	NaN	NaN	1	32.44309	27	863.93016	29	809.6336
earht	PZA01677.1	10	70797556	0.28727	0.59621	0.00996	0.28727	0.59621	NaN	NaN	1	240.07694	28	835.72586	30	793.00089
earht	PZA02941.2	10	71120160	NaN	NaN	0	NaN	NaN	NaN	NaN	0	NaN	26	857.1733	27	829.80166
earht	PZA02941.3	10	71120220	29.13911	1.5222E-5	0.53862	29.13911	1.5222E-5	NaN	NaN	1	10518.51403	24	360.97578	26	741.46894
earht	PZA02941.6	10	71120324	0.01654	0.89865	6.2368E-4	0.01654	0.89865	NaN	NaN	1	14.1708	26	856.58405	28	801.4232
earht	PZA00475.20	10	75521031	NaN	NaN	0	NaN	NaN	NaN	NaN	0	NaN	24	945.79792	25	910.52585
earht	PZA00475.25	10	75521139	NaN	NaN	0	NaN	NaN	NaN	NaN	0	NaN	28	834.23419	29	809.6336
earht	PZA01877.2	10	77492186	0.12232	0.72958	0.00498	0.12232	0.72958	NaN	NaN	1	111.89254	24	914.75351	26	854.22848
earht	PZB02029.1	10	78146208	0.62101	0.43729	0.02127	0.62101	0.43729	NaN	NaN	1	512.9429	28	825.98065	30	793.00089
earht	PZA03157.2	10	81756950	1.21711	0.27932	0.04084	1.21711	0.27932	NaN	NaN	1	984.79757	28	809.1287	30	793.00089
earht	PZB00409.1	10	84002430	1.84927	0.18601	0.06771	1.84927	0.18601	NaN	NaN	1	1592.81093	25	861.31898	27	860.44995
earht	PZA00587.3	10	84518272	0.01938	0.89031	7.0332E-4	0.01938	0.89031	NaN	NaN	1	16.95757	27	874.85849	29	820.35079
earht	PZA03170.2	10	85296853	0.24529	0.62442	0.00882	0.24529	0.62442	NaN	NaN	1	208.88393	27	851.56458	29	805.61192
earht	PZA03170.1	10	85296889	7.232E-5	0.99328	2.624E-6	7.232E-5	0.99328	NaN	NaN	1	0.0632	27	873.85413	29	819.40239
earht	PZB02529.2	10	86319860	0.72615	0.40136	0.02478	0.72615	0.40136	NaN	NaN	1	597.58968	28	822.95755	30	793.00089
earht	PZB02529.1	10	86320007	2.20922	0.14836	0.0717	2.20922	0.14836	NaN	NaN	1	1728.83955	28	782.55577	30	793.00089
earht	PZA00337.4	10	86327620	2.40905	0.13228	0.08031	2.40905	0.13228	NaN	NaN	1	1936.32552	27	803.77078	29	820.35079
earht	PZA00337.3	10	86327722	1.02189	0.37392	0.07158	2.06052	0.16264	0.05535	0.81584	2	851.16639	26	832.93172	29	809.6336
earht	PZA00814.1	10	87194491	0.01906	0.89118	6.67E-4	0.01906	0.89118	NaN	NaN	1	16.08253	28	843.72566	30	793.00089
earht	PZA03351.1	10	89122261	0.0086	0.92682	3.1227E-4	0.0086	0.92682	NaN	NaN	1	7.45092	27	866.83905	29	811.83408
earht	PZA00048.2	10	98582073	0.37562	0.54572	0.01514	0.37562	0.54572	NaN	NaN	1	331.46453	24	882.45111	26	832.14633
earht	PZA00048.1	10	98582149	0.29664	0.59031	0.01028	0.29664	0.59031	NaN	NaN	1	247.82565	28	835.44912	30	793.00089
earht	PZA00400.3	10	98866690	0.03743	0.84798	0.00131	0.03743	0.84798	NaN	NaN	1	31.56303	28	843.17279	30	793.00089
earht	PZB01206.2	10	99238136	11.63172	0.00213	0.30239	11.63172	0.00213	NaN	NaN	1	6881.59003	26	591.6228	28	803.04859
earht	PZB01206.1	10	99238326	5.83084	0.02308	0.17958	5.83084	0.02308	NaN	NaN	1	4111.36827	26	705.10679	28	806.70438
earht	PZA02398.2	10	99471436	0.03137	0.86075	0.00114	0.03137	0.86075	NaN	NaN	1	27.42957	27	874.47063	29	820.35079
earht	PHM537.22	10	99471668	1.64462	0.21021	0.05439	1.64462	0.21021	NaN	NaN	1	1311.52065	28	797.46002	30	793.00089
earht	PZA03585.1	10	104900730	0.79829	0.37922	0.02718	0.79829	0.37922	NaN	NaN	1	655.31057	28	820.89609	30	793.00089
earht	PZA02993.5	10	106620017	1.88154	0.18145	0.06399	1.88154	0.18145	NaN	NaN	1	1521.73681	27	808.77113	29	809.6336
earht	PZA02993.6	10	106620041	0.32948	0.5709	0.01229	0.32948	0.5709	NaN	NaN	1	289.67031	26	879.18197	28	831.00327
earht	PZA02993.14	10	106620146	1.96943	0.17281	0.07167	1.96943	0.17281	NaN	NaN	1	1659.97521	25	842.86937	27	847.40714
earht	PZA00444.5	10	106780310	NaN	NaN	0	NaN	NaN	NaN	NaN	0	NaN	28	834.23419	29	809.6336
earht	PZA00444.1	10	106780357	0.11397	0.73819	0.00397	0.11397	0.73819	NaN	NaN	1	95.83474	28	840.87737	30	793.00089
earht	PHM18195.6	10	106780623	0.11397	0.73819	0.00397	0.11397	0.73819	NaN	NaN	1	95.83474	28	840.87737	30	793.00089
earht	PZB00806.9	10	107950190	1.3765	0.25058	0.04594	1.3765	0.25058	NaN	NaN	1	1107.72203	28	804.73854	30	793.00089
earht	PZB00806.8	10	107950287	NaN	NaN	0	NaN	NaN	NaN	NaN	0	NaN	29	815.18624	30	793.00089
earht	PZB00806.4	10	107950370	0.10764	0.89833	0.00776	0.04012	0.84269	0.17634	0.67786	2	93.50303	27	868.64426	30	793.00089
earht	PZB00806.6	10	107950399	0.41344	0.66564	0.03022	0.09402	0.76148	0.73378	0.39949	2	360.7906	26	872.66161	29	812.40306
earht	PZA00135.6	10	109542101	NaN	NaN	0	NaN	NaN	NaN	NaN	0	NaN	28	834.23419	29	809.6336
earht	PZA01292.1	10	109633741	8.25625	0.00799	0.23613	8.25625	0.00799	NaN	NaN	1	5596.25355	26	677.82058	28	835.82878
earht	PZA01919.2	10	111260278	0.56801	0.45734	0.01949	0.56801	0.45734	NaN	NaN	1	470.0343	28	827.5131	30	793.00089
earht	PZA02128.3	10	111608788	0.75324	0.39283	0.02568	0.75324	0.39283	NaN	NaN	1	619.30094	28	822.18215	30	793.00089
earht	PZA00215.3	10	111672770	2.70492	0.11364	0.10338	2.70492	0.11364	NaN	NaN	1	2285.40777	23	844.90749	25	872.21594
earht	PHM13687.14	10	117796822	0.03184	0.86002	0.00142	0.03184	0.86002	NaN	NaN	1	29.74608	22	934.36133	24	861.46107
earht	PZA00712.15	10	117797016	2.9333	0.09867	0.09872	2.9333	0.09867	NaN	NaN	1	1295.24538	26	441.56592	28	458.57525
earht	PZA00712.4	10	117797175	1.40857	0.24603	0.05047	1.40857	0.24603	NaN	NaN	1	1199.34346	26	851.46272	28	837.93054
earht	PZA02219.2	10	118308828	0.06329	0.80321	0.00221	0.06329	0.80321	NaN	NaN	1	53.31325	28	842.39599	30	793.00089
earht	PZB00677.3	10	120604920	1.7819E-4	0.98945	6.4662E-6	1.7819E-4	0.98945	NaN	NaN	1	0.15325	27	860.06876	29	806.95859
earht	PZB00677.4	10	120605201	0.00105	0.97441	3.8103E-5	0.00105	0.97441	NaN	NaN	1	0.91572	27	873.4882	29	817.61522
earht	PZA03713.1	10	121489957	0.48509	0.49187	0.0167	0.48509	0.49187	NaN	NaN	1	402.5845	28	829.92202	30	793.00089
earht	PZA03711.2	10	121491031	0.69997	0.41014	0.02479	0.69997	0.41014	NaN	NaN	1	591.62017	27	845.20315	29	811.83408
earht	PZA03711.3	10	121491202	NaN	NaN	0	NaN	NaN	NaN	NaN	0	NaN	28	836.14662	29	811.83408
earht	PZA03711.1	10	121491271	0.95421	0.33732	0.03349	0.95421	0.33732	NaN	NaN	1	799.16901	27	837.51616	29	811.83408
earht	PZA03710.2	10	121491723	0.78027	0.38458	0.02658	0.78027	0.38458	NaN	NaN	1	640.91887	28	821.41008	30	793.00089
earht	PZA03710.4	10	121491895	0.45485	0.50557	0.01567	0.45485	0.50557	NaN	NaN	1	377.88713	28	830.80407	30	793.00089
earht	PZA03710.1	10	121491955	0.59066	0.4486	0.02026	0.59066	0.4486	NaN	NaN	1	488.39436	28	826.85738	30	793.00089
earht	PZA03710.5	10	121492057	0.45485	0.50557	0.01567	0.45485	0.50557	NaN	NaN	1	377.88713	28	830.80407	30	793.00089
earht	PZA03710.3	10	121492142	0.45485	0.50557	0.01567	0.45485	0.50557	NaN	NaN	1	377.88713	28	830.80407	30	793.00089
earht	PZA03710.6	10	121492205	0.69637	0.41133	0.02463	0.69637	0.41133	NaN	NaN	1	583.34666	27	837.69559	29	805.61192
earht	PZA03709.1	10	121493027	0.00692	0.9343	2.4222E-4	0.00692	0.9343	NaN	NaN	1	5.84045	28	844.09145	30	793.00089
earht	PZA03709.2	10	121493288	0.45485	0.50557	0.01567	0.45485	0.50557	NaN	NaN	1	377.88713	28	830.80407	30	793.00089
earht	PZA00251.4	10	122517732	1.14492	0.33503	0.08554	1.95613	0.17421	0.38207	0.54232	2	1008.05365	24	880.45705	27	861.77866
earht	PZA00251.1	10	122517816	0.02672	0.87136	9.7117E-4	0.02672	0.87136	NaN	NaN	1	23.09664	27	864.27632	29	809.6336
earht	PZB02227.3	10	123741974	0.93714	0.3413	0.03175	0.93714	0.3413	NaN	NaN	1	765.60494	28	816.95701	30	793.00089
earht	PZB02227.1	10	123742114	2.28455	0.14429	0.08801	2.28455	0.14429	NaN	NaN	1	1703.07207	23	745.47382	25	762.99961
earht	PZB02227.4	10	123742392	0.34201	0.56336	0.01183	0.34201	0.56336	NaN	NaN	1	285.27332	28	834.11171	30	793.00089
earht	PZB02227.2	10	123742823	0.85132	0.36435	0.02999	0.85132	0.36435	NaN	NaN	1	715.62621	27	840.61033	29	811.83408
earht	PZA02821.5	10	123998923	0.03333	0.85656	0.00126	0.03333	0.85656	NaN	NaN	1	29.63612	26	889.18329	28	831.00327
earht	PZA03196.3	10	124005323	0.02061	0.88692	7.4769E-4	0.02061	0.88692	NaN	NaN	1	17.85518	27	866.40473	29	812.40306
earht	PZA03196.1	10	124005403	1.31153	0.26181	0.04387	1.31153	0.26181	NaN	NaN	1	1057.77598	28	806.52233	30	793.00089
earht	PZA00063.3	10	124523264	NaN	NaN	0	NaN	NaN	NaN	NaN	0	NaN	27	857.34821	28	831.00327
earht	PZB01412.2	10	126573429	0.0155	0.90181	5.424E-4	0.0155	0.90181	NaN	NaN	1	13.07812	28	843.83296	30	793.00089
earht	PZA03071.15	10	128463270	1.00852	0.32528	0.03953	1.00852	0.32528	NaN	NaN	1	867.20295	24	859.88045	26	833.76187
earht	PZA00647.9	10	129730703	0.10172	0.75223	0.00369	0.10172	0.75223	NaN	NaN	1	87.67101	27	861.88468	29	809.6336
earht	PZA00342.7	10	130170691	0.63995	0.43098	0.02359	0.63995	0.43098	NaN	NaN	1	556.07733	26	868.93555	28	831.00327
earht	PZA00342.9	10	130170772	0.53268	0.5933	0.03866	5.3191E-4	0.98177	1.06484	0.31162	2	459.72933	26	863.04226	29	809.6336
earht	PZA03115.1	10	130351968	2.22002	0.14782	0.07455	2.22002	0.14782	NaN	NaN	1	1778.75918	27	801.23504	29	811.83408
earht	PZA03115.2	10	130352040	0.26536	0.61065	0.00954	0.26536	0.61065	NaN	NaN	1	227.84682	27	858.62727	29	812.40306
earht	PZA01241.2	10	130452676	0.23391	0.63254	0.00842	0.23391	0.63254	NaN	NaN	1	203.02755	27	867.967	29	820.35079
earht	PZA02320.1	10	132256848	0.46747	0.49977	0.0161	0.46747	0.49977	NaN	NaN	1	388.20272	28	830.43566	30	793.00089
earht	PZA03164.2	10	132380594	0.0132	0.90938	4.7902E-4	0.0132	0.90938	NaN	NaN	1	11.43915	27	866.64236	29	812.40306
earht	PZA03164.3	10	132381021	4.3399	0.04761	0.14464	4.3399	0.04761	NaN	NaN	1	3246.08571	25	747.96248	27	820.31383
earht	PZA03164.1	10	132381032	1.06342	0.31159	0.03715	1.06342	0.31159	NaN	NaN	1	887.11286	27	834.21	29	812.40306
earht	PZB01997.1	10	132732382	1.54825	0.22409	0.05327	1.54825	0.22409	NaN	NaN	1	1266.79876	27	818.21328	29	809.6336
earht	PZB01111.8	10	134034407	0.4084	0.52798	0.01409	0.4084	0.52798	NaN	NaN	1	339.85331	28	832.16242	30	793.00089
earht	PZB01111.3	10	134034437	0.61349	0.44029	0.02178	0.61349	0.44029	NaN	NaN	1	525.00809	27	855.77559	29	820.31915
earht	PZB01111.1	10	134034461	0.75518	0.39279	0.02772	0.75518	0.39279	NaN	NaN	1	653.37499	26	865.19333	28	831.00327
earht	PZB01111.5	10	134034491	0.19619	0.82302	0.01404	0.28743	0.59611	0.11405	0.73819	2	169.31841	27	863.02831	30	793.00089
earht	PZB01111.7	10	134034686	0.01602	0.90017	5.6076E-4	0.01602	0.90017	NaN	NaN	1	13.52103	28	843.81715	30	793.00089
earht	PZB01111.6	10	134034875	1.35889	0.25357	0.04538	1.35889	0.25357	NaN	NaN	1	1094.20339	28	805.22135	30	793.00089
earht	PZA03398.2	10	134805750	NaN	NaN	0	NaN	NaN	NaN	NaN	0	NaN	29	815.18624	30	793.00089
earht	PZA03398.1	10	134805853	0.43592	0.51469	0.01563	0.43592	0.51469	NaN	NaN	1	375.54357	27	861.49177	29	818.98575
earht	PZA01456.2	10	135928293	1.61764	0.21388	0.05355	1.61764	0.21388	NaN	NaN	1	1291.17532	28	798.18663	30	793.00089
earht	PHM18513.156	10	136530988	0.17174	0.68172	0.00598	0.17174	0.68172	NaN	NaN	1	144.11996	28	839.1529	30	793.00089
earht	PHM15868.56	10	137132183	2.02568	0.16611	0.06842	2.02568	0.16611	NaN	NaN	1	1649.68453	27	814.38712	29	820.35079
earht	PZA02663.1	10	137627429	6.8636E-4	0.97928	2.4033E-5	6.8636E-4	0.97928	NaN	NaN	1	0.57948	28	844.27934	30	793.00089
earht	PZA03570.2	10	138760374	NaN	NaN	0	NaN	NaN	NaN	NaN	0	NaN	29	815.18624	30	793.00089
earht	PZA03570.1	10	138760446	0.00604	0.93863	2.113E-4	0.00604	0.93863	NaN	NaN	1	5.09484	28	844.11808	30	793.00089
earht	PZA03569.2	10	138760685	0.28698	0.59639	0.00995	0.28698	0.59639	NaN	NaN	1	239.84185	28	835.73426	30	793.00089
earht	PZA03229.1	10	139507065	0.47098	0.62962	0.03427	0.49083	0.48955	0.46093	0.50319	2	409.24814	26	868.9341	29	812.40306
earht	PZA03229.4	10	139507136	0.24879	0.78158	0.01841	8.5941E-5	0.99267	0.4975	0.48687	2	219.80737	26	883.50647	29	812.40306
earht	PZA03229.2	10	139507440	0.0078	0.93029	2.8301E-4	0.0078	0.93029	NaN	NaN	1	6.75843	27	866.81572	29	812.40306
earht	PZA01995.2	10	139616614	0.09635	0.75863	0.00349	0.09635	0.75863	NaN	NaN	1	84.05626	27	872.37335	29	820.35079
earht	PZA03267.3	10	139717238	0.02122	0.88523	7.4242E-4	0.02122	0.88523	NaN	NaN	1	17.90116	28	843.66071	30	793.00089
earht	PZA03267.2	10	139717663	1.25057	0.2733	0.0434	1.25057	0.2733	NaN	NaN	1	1036.32367	27	828.68368	29	812.40306
earht	PZA03267.4	10	139717741	1.50582	0.24055	0.10177	2.38018	0.13452	0.66132	0.42348	2	1215.11465	26	806.94437	29	812.40306
earht	PZA03132.3	10	139830278	2.50948	0.12573	0.08897	2.50948	0.12573	NaN	NaN	1	1728.19201	25	688.66471	27	709.10807
earht	PZB00239.1	10	140492616	NaN	NaN	0	NaN	NaN	NaN	NaN	0	NaN	23	752.09218	24	726.05142
earht	PZA03607.5	10	141828307	0.27558	0.60375	0.00956	0.27558	0.60375	NaN	NaN	1	230.4045	28	836.07131	30	793.00089
earht	PZA03607.3	10	141828459	5.66431	0.02493	0.17538	5.66431	0.02493	NaN	NaN	1	4178.98425	26	737.77426	28	839.69236
earht	PZA03607.2	10	141828530	1.7515	0.19639	0.05772	1.7515	0.19639	NaN	NaN	1	1391.73698	28	794.59515	30	793.00089
earht	PZA03607.1	10	141828531	1.22821	0.27753	0.04251	1.22821	0.27753	NaN	NaN	1	906.85253	27	738.35117	29	724.46894
earht	PZA03607.4	10	141828691	1.1695	0.28983	0.0438	1.1695	0.28983	NaN	NaN	1	976.52715	25	834.99515	27	815.43884
earht	PZA03606.1	10	141829598	0.02262	0.88152	7.9151E-4	0.02262	0.88152	NaN	NaN	1	19.08473	28	843.61844	30	793.00089
earht	PZB02554.3	10	141829707	NaN	NaN	0	NaN	NaN	NaN	NaN	0	NaN	29	815.18624	30	793.00089
earht	PZB02554.2	10	141829795	8.17052	0.00795	0.22147	8.17052	0.00795	NaN	NaN	1	5340.10579	28	653.58197	30	793.00089
earht	PZB02554.1	10	141829860	0.17271	0.681	0.00624	0.17271	0.681	NaN	NaN	1	148.80897	27	861.60357	29	811.83408
earht	PZA03605.1	10	141830532	0.29557	0.59113	0.01061	0.29557	0.59113	NaN	NaN	1	255.49277	27	864.39378	29	819.40239
earht	PZA03605.2	10	141830830	0.06706	0.79756	0.00234	0.06706	0.79756	NaN	NaN	1	56.48185	28	842.28283	30	793.00089
earht	PZA03604.2	10	141831736	0.25919	0.61467	0.00899	0.25919	0.61467	NaN	NaN	1	216.8233	28	836.55635	30	793.00089
earht	PZA03604.1	10	141831767	0.25919	0.61467	0.00899	0.25919	0.61467	NaN	NaN	1	216.8233	28	836.55635	30	793.00089
earht	PZA03604.3	10	141831821	NaN	NaN	0	NaN	NaN	NaN	NaN	0	NaN	28	836.14662	29	811.83408
earht	PZA00727.11	10	142854665	1.72535	0.19788	0.11508	0.07563	0.7854	3.36844	0.07792	2	1368.44541	26	793.14102	29	809.6336
earht	PZA00727.1	10	142854765	0.01695	0.89738	6.1625E-4	0.01695	0.89738	NaN	NaN	1	14.65591	27	864.58894	29	809.6336
earht	PZA00130.9	10	143269455	0.4566	0.50518	0.01686	0.4566	0.50518	NaN	NaN	1	359.62985	26	787.62581	28	750.32962
earht	PZA00130.7	10	143269563	4.26214	0.04994	0.14814	4.26214	0.04994	NaN	NaN	1	3483.28671	24	817.26326	26	893.17656
earht	PZA02969.1	10	143676007	4.2677	0.04935	0.14326	4.2677	0.04935	NaN	NaN	1	3374.6472	25	790.74211	27	861.2839
earht	PZA02969.7	10	143676157	NaN	NaN	0	NaN	NaN	NaN	NaN	0	NaN	26	873.77353	27	843.89663
earht	PZA02969.8	10	143676207	8.15069	0.00834	0.2344	8.15069	0.00834	NaN	NaN	1	5524.79268	26	677.83111	28	831.00327
earht	PZA02049.1	10	144025574	0.17018	0.68333	0.00638	0.17018	0.68333	NaN	NaN	1	153.69472	26	903.12465	28	849.36566
earht	PZA00007.2	10	144172190	5.5007	0.02691	0.1715	5.5007	0.02691	NaN	NaN	1	4042.20687	26	734.85364	28	831.00327
earht	PZA00007.1	10	144172316	1.18565	0.28583	0.04132	1.18565	0.28583	NaN	NaN	1	982.59567	27	828.73932	29	809.6336
earht	PHM5435.25	10	144239494	2.2601	0.14394	0.07323	2.2601	0.14394	NaN	NaN	1	1765.68204	28	781.23997	30	793.00089
earht	PZA00551.4	10	144239564	4.37032	0.04649	0.14133	4.37032	0.04649	NaN	NaN	1	3331.07903	26	762.20472	28	831.00327
earht	PZB00769.2	10	144548839	0.1856	0.67003	0.00669	0.1856	0.67003	NaN	NaN	1	159.82601	27	861.14655	29	812.40306
earht	PZB00769.1	10	144548910	0.10696	0.74616	0.00387	0.10696	0.74616	NaN	NaN	1	92.37387	27	863.64478	29	812.40306
earht	PZA01073.1	10	144549995	0.14551	0.70585	0.00526	0.14551	0.70585	NaN	NaN	1	126.70964	27	870.79359	29	820.35079
earht	PZB01471.2	10	145850233	0.13849	0.71292	0.00537	0.13849	0.71292	NaN	NaN	1	104.36972	25	753.6176	27	709.10807
earht	PZB01471.3	10	145850362	2.09293	0.15909	0.06819	2.09293	0.15909	NaN	NaN	1	1644.16369	28	785.57991	30	793.00089
earht	PZB01471.1	10	145850422	6.17671	0.0197	0.18834	6.17671	0.0197	NaN	NaN	1	4453.45542	26	721.00746	28	833.20691
earht	PZA00062.4	10	146999711	6.7191E-4	0.9795	2.3527E-5	6.7191E-4	0.9795	NaN	NaN	1	0.56728	28	844.27978	30	793.00089
earht	PZA00678.1	10	147762925	0.14915	0.7025	0.0056	0.14915	0.7025	NaN	NaN	1	132.03083	26	885.24503	28	831.00327
earht	PZA00678.2	10	147762964	0.06316	0.93896	0.00536	0.01094	0.91757	0.11578	0.73674	2	60.63124	23	959.98371	26	860.06173
earht	PZA00179.9	10	147819958	3.71624	0.06488	0.12282	3.71624	0.06488	NaN	NaN	1	2894.88322	26	778.98148	28	831.00327
earht	PZA02833.6	10	148332885	1.85816	0.18603	0.0733	1.85816	0.18603	NaN	NaN	1	1646.80387	23	886.25697	25	887.45747
earht	PHM1506.23	10	148488692	0.20176	0.65689	0.00727	0.20176	0.65689	NaN	NaN	1	175.32631	27	868.99298	29	820.35079
earht	PZA03402.1	10	148816538	NaN	NaN	0	NaN	NaN	NaN	NaN	0	NaN	29	815.18624	30	793.00089
earht	PZA03429.1	10	148907116	NaN	NaN	0	NaN	NaN	NaN	NaN	0	NaN	28	836.14662	29	811.83408
