Trait	Marker	Locus	Site	Allele	Effect	Obs
EarHT	PZA03062.7	9	3873116	C	3.19376	202
EarHT	PZA03062.7	9	3873116	T	0	71
EarHT	PZD00036.2	9	6992336	A	-3.0975E1	165
EarHT	PZD00036.2	9	6992336	T	-3.084E1	80
EarHT	PZD00036.2	9	6992336	W	0	2
EarHT	PZA01799.1	9	9885916	A	-2.2364E0	99
EarHT	PZA01799.1	9	9885916	G	-2.6645E0	153
EarHT	PZA01799.1	9	9885916	R	0	6
EarHT	PZB00781.1	9	11101740	A	1.18339	128
EarHT	PZB00781.1	9	11101740	G	0	109
EarHT	sh1.4	9	11336778	A	11.59926	117
EarHT	sh1.4	9	11336778	G	10.96048	159
EarHT	sh1.4	9	11336778	R	0	1
EarHT	sh1.3	9	11337226	C	7.58032	97
EarHT	sh1.3	9	11337226	T	7.01297	169
EarHT	sh1.3	9	11337226	Y	0	6
EarHT	sh1.2	9	11339352	A	-2.9077E0	186
EarHT	sh1.2	9	11339352	T	0	87
EarHT	sh1.11	9	11339891	A	-8.1007E0	163
EarHT	sh1.11	9	11339891	G	-5.0194E0	108
EarHT	sh1.11	9	11339891	R	0	2
EarHT	sh1.12	9	11340882	C	-9.0212E-2	112
EarHT	sh1.12	9	11340882	T	-7.5697E-1	120
EarHT	sh1.12	9	11340882	Y	0	7
EarHT	sh1.1	9	11341274	C	8.4815	155
EarHT	sh1.1	9	11341274	T	2.70199	12
EarHT	sh1.1	9	11341274	Y	0	84
EarHT	PHM1218.6	9	11342096	A	2.83168	62
EarHT	PHM1218.6	9	11342096	G	7.9015	194
EarHT	PHM1218.6	9	11342096	R	0	1
EarHT	PZA01195.3	9	11345280	A	-1.9532E1	240
EarHT	PZA01195.3	9	11345280	G	-2.7375E1	33
EarHT	PZA01195.3	9	11345280	R	0	1
EarHT	PZA00466.1	9	11972467	A	-8.7834E-1	48
EarHT	PZA00466.1	9	11972467	G	0	224
EarHT	PHM5181.10	9	15582065	C	-3.4523E0	175
EarHT	PHM5181.10	9	15582065	T	0	99
EarHT	PZA02916.5	9	15582100	A	-6.4802E0	153
EarHT	PZA02916.5	9	15582100	G	3.51854	105
EarHT	PZA02916.5	9	15582100	R	0	1
EarHT	PZA02916.4	9	15582109	A	3.54554	130
EarHT	PZA02916.4	9	15582109	G	11.69672	118
EarHT	PZA02916.4	9	15582109	R	0	2
EarHT	PZA02702.1	9	16228586	A	-1.9704E1	242
EarHT	PZA02702.1	9	16228586	G	-2.7054E1	33
EarHT	PZA02702.1	9	16228586	R	0	1
EarHT	PZD00047.1	9	16966493	C	-1.9778E0	243
EarHT	PZD00047.1	9	16966493	T	0	34
EarHT	PHM9374.5	9	17653676	C	14.34598	174
EarHT	PHM9374.5	9	17653676	T	12.82089	79
EarHT	PHM9374.5	9	17653676	Y	0	2
EarHT	PZA00860.1	9	18684111	A	-3.1154E0	90
EarHT	PZA00860.1	9	18684111	C	0	186
EarHT	PZA03058.12	9	19292942	A	11.09803	180
EarHT	PZA03058.12	9	19292942	G	12.60305	90
EarHT	PZA03058.12	9	19292942	R	0	1
EarHT	PZA03058.16	9	19292964	C	13.2889	115
EarHT	PZA03058.16	9	19292964	T	14.1769	133
EarHT	PZA03058.16	9	19292964	Y	0	2
EarHT	PZA03058.17	9	19292988	C	-9.9316E0	245
EarHT	PZA03058.17	9	19292988	T	-1.5995E1	29
EarHT	PZA03058.17	9	19292988	Y	0	2
EarHT	PZA03058.22	9	19293027	C	-2.3477E0	193
EarHT	PZA03058.22	9	19293027	T	-3.775E0	37
EarHT	PZA03058.22	9	19293027	Y	0	22
EarHT	PZB00736.2	9	20516063	A	-1.5831E0	78
EarHT	PZB00736.2	9	20516063	C	0	194
EarHT	PZA00583.4	9	20525979	A	12.56575	134
EarHT	PZA00583.4	9	20525979	G	11.96932	133
EarHT	PZA00583.4	9	20525979	R	0	2
EarHT	PZB01042.7	9	22040626	C	-7.8269E-2	238
EarHT	PZB01042.7	9	22040626	T	0	40
EarHT	PZB01042.5	9	22040925	A	-5.1022E0	43
EarHT	PZB01042.5	9	22040925	C	-1.1031E1	227
EarHT	PZB01042.5	9	22040925	M	0	2
EarHT	PZB01042.2	9	22040988	A	4.7255	23
EarHT	PZB01042.2	9	22040988	G	1.15328	174
EarHT	PZB01042.2	9	22040988	R	0	81
EarHT	PZB01042.1	9	22041092	A	0.5021	6
EarHT	PZB01042.1	9	22041092	C	1.85115	195
EarHT	PZB01042.1	9	22041092	M	0	68
EarHT	PZB01042.8	9	22041375	A	1.7366	202
EarHT	PZB01042.8	9	22041375	G	0	76
EarHT	wx1.1	9	23215033	C	-1.0502E-1	33
EarHT	wx1.1	9	23215033	G	11.47186	233
EarHT	wx1.1	9	23215033	S	0	1
